{
  "project_info": {
    "project_number": "219869963316",
    "firebase_url": "https://spicypepper-10b10b.firebaseio.com",
    "project_id": "spicypepper-10b10b",
    "storage_bucket": "spicypepper-10b10b.appspot.com"
  },
  "client": [
    {
      "client_info": {
        "mobilesdk_app_id": "1:219869963316:android:34bddc060730c77b02d661",
        "android_client_info": {
          "package_name": "com.demo.expense_manager"
        }
      },
      "oauth_client": [
        {
          "client_id": "219869963316-mt3mo0jnq6bquo0vbreoo6cbej2cs859.apps.googleusercontent.com",
          "client_type": 1,
          "android_info": {
            "package_name": "com.demo.expense_manager",
            "certificate_hash": "eae1d658fadb34b1380f02deba56570754c5735f"
          }
        },
        {
          "client_id": "219869963316-al0lskmvpsqchmgl9sos0pe67oqh1nv8.apps.googleusercontent.com",
          "client_type": 3
        }
      ],
      "api_key": [
        {
          "current_key": "AIzaSyBOVAVC4l7Fc_tQDE3gGxo5UZlCWBhJLPE"
        }
      ],
      "services": {
        "appinvite_service": {
          "other_platform_oauth_client": [
            {
              "client_id": "219869963316-3j9dcb8ef5bvam1b9fi4g21mhsuunq4r.apps.googleusercontent.com",
              "client_type": 3
            }
          ]
        }
      }
    }
  ],
  "configuration_version": "1"
}